Navigating Financial Diaries Data: A Practical Guide to Analyzing Longitudinal Survey Data in R
…
income_prep <- income_df %>% 
  gather(key = "question_name", value = "response") %>% #melting the data
  mutate(response = replace_na(response, 99)) %>% #convert NA to 99
  group_by(question_name) %>% 
  count(response, name = "frequency") 

income_table <- income_prep %>% 
  ungroup() %>% 
  spread(response, frequency) %>% 
  arrange(`0`, `1`, `99`)

income_table

# A tibble: 48 × 4
   question_name   `0`   `1`  `99`
   <chr>         <int> <int> <int>
 1 A_4_6.y         375   121    68
 2 A_4_6.x         379   117    68
 3 A_4_15.x        383   113    68
 4 A_4_15.y        387   109    68
 5 A_4_15          400   136    28
 6 A_4_2.x         410    86    68
 7 A_4_2.y         419    77    68
 8 A_4_6           422   114    28
 9 A_4_9.y         427    69    68
10 A_4_9.x         437    59    68
# ℹ 38 more rows
…
